Name,Given Name,Additional Name,Family Name,Yomi Name,Given Name Yomi,Additional Name Yomi,Family Name Yomi,Name Prefix,Name Suffix,Initials,Nickname,Short Name,Maiden Name,Birthday,Gender,Location,Billing Information,Directory Server,Mileage,Occupation,Hobby,Sensitivity,Priority,Subject,Notes,Language,Photo,Group Membership,Phone 1 - Type,Phone 1 - Value,Organization 1 - Type,Organization 1 - Name,Organization 1 - Yomi Name,Organization 1 - Title,Organization 1 - Department,Organization 1 - Symbol,Organization 1 - Location,Organization 1 - Job Description
...L,.,,L,,,,,,,,,,,,,,,,,,,,,,,,,* myContacts,Mobile,99663640,,,,,,,,
☘️🍀damiana Belem Cliente,☘️🍀damiana,Belem,Cliente,,,,,,,,,,,,,,,,,,,,,,,,,* myContacts,Mobile,+55 91 8059-6767,,,,,,,,
,,,,,,,,,,,,,,,,,,,,,,,,,,,,* myContacts,Mobile,98566-8118,,,,,,,,
Adria,Adria,,,,,,,,,,,,,,,,,,,,,,,,,,,* myContacts,Mobile,+55 91 9156-2350,unknown,RH - Recursos Humanos,,,,,,
Aline Barros 🥰,Aline,Barros,🥰,,,,,,,,,,,,,,,,,,,,,,,,,* myContacts,Celular,+55 91 9142-7557,,,,,,,,
ALINE GOMES DO NASCIMENTO,ALINE GOMES,DO,NASCIMENTO,,,,,,,,,,,,,,,,,,,,,,,,,* myContacts,Mobile,99132-0103,,,,,,,,
"ALLAN KENNEDY ARAUJO COSTA

Telefone: (91) 98893-9327","ALLAN KENNEDY ARAUJO COSTA

Telefone:",(91),"98893-9327

",,,,,,,,,,,,,,,,,,,,,,,,,* myContacts,Mobile, 98893-9327,,,,,,,,
Alwnilson,Alwnilson,,,,,,,,,,,,,,,,,,,,,,,,,,,* myContacts,Mobile,99273-6048,,,,,,,,
Amanda Sao Miguel,Amanda,Sao,Miguel,,,,,,,,,,,,,,,,,,,,,,,,,* myContacts,Mobile,98098-1622,,,,,,,,
Ana A,Ana,,A,,,,,,,,,,,,,,,,,,,,,,,,,* myContacts,Mobile,991586513,,,,,,,,
Ana Almeida Cliente,Ana,Almeida,Cliente,,,,,,,,,,,,,,,,,,,,,,,,,* myContacts,Mobile,982521445,,,,,,,,
Ana  Fotini Cliente,Ana,Fotini,Cliente,,,,,,,,,,,,,,,,,,,,,,,,,* myContacts,Mobile,984396698,,,,,,,,
Ana Fotini Cliente 2,Ana Fotini,Cliente,2,,,,,,,,,,,,,,,,,,,,,,,,,* myContacts,Mobile,983743924,,,,,,,,
"ANTONIA CLECIANE ROCHA MOREIRA

Telefone: (91) 99844-9287","ANTONIA CLECIANE ROCHA MOREIRA

Telefone:",(91),"99844-9287

",,,,,,,,,,,,,,,,,,,,,,,,,* myContacts,,,,,,,,,,
"ANTONIA CLECIANE ROCHA MOREIRA

Telefone: (91) 99844-9287","ANTONIA CLECIANE ROCHA MOREIRA

Telefone:",(91),"99844-9287

",,,,,,,,,,,,,,,,,,,,,,,,,* myContacts,Mobile, 99844-9287,,,,,,,,
"ANTONIA CLECIANE ROCHA MOREIRA

Telefone: (91) 99844-9287","ANTONIA CLECIANE ROCHA MOREIRA

Telefone:",(91),"99844-9287

",,,,,,,,,,,,,,,,,,,,,,,,,* myContacts,Mobile,98449-2877,,,,,,,,
Ary Valente - Tec Curuça,Ary Valente -,Tec,Curuça,,,,,,,,,,,,,,,,,,,,,,,,,* myContacts,Mobile,991523918,,,,,,,,
Atualizar ISS,Atualizar,,ISS,,,,,,,,,,,,,,,,,,,,,,,,,* myContacts,Mobile,48 98852-9993,,,,,,,,
Aux Bga EDSON HILTON,Aux Bga,EDSON,HILTON,,,,,,,,,,,,,,,,,,,,,,,,,* myContacts,Celular, 98815-8962,,,,,,,,
Aux Tec Layane,Aux,Tec,Layane,,,,,,,,,,,,,,,,,,,,,,,,,* myContacts,Mobile,99298-8162,,,,,,,,
Ayllan Galvão SEA,Ayllan,Galvão,SEA,,,,,,,,,,,,,,,,,,,,,,,,,* myContacts,Mobile,+55 91 98842-6401,,,,,,,,
Barbearia Capitão Poço,Barbearia,Capitão,Poço,,,,,,,,,,,,,,,,,,,,,,,,,* myContacts,Mobile,98462-7154,,,,,,,,
Barreto Cliente Sea,Barreto,Cliente,Sea,,,,,,,,,,,,,,,,,,,,,,,,,* myContacts,Mobile,986222286,,,,,,,,
Cacianne,Cacianne,,,,,,,,,,,,,,,,,,,,,,,,,,,* myContacts,Mobile,99259-0863,,,,,,,,
Caio,Caio,,,,,,,,,,,,,,,,,,,,,,,,,,,* myContacts,Mobile,+55 91 9187-5822,unknown,CAIO ROCHA - TÉCNICO EM TELECOMUNICAÇÕES,,,,,,
Caio Inspeção,Caio Inspeção ,,,,,,,,,,,,,,,,,,,,,,,,,,,* myContacts,Mobile,98185-9989,,,,,,,,
Caio Sea,Caio,,Sea,,,,,,,,,,,,,,,,,,,,,,,,,* myContacts,Mobile,+55 91 8510-3780,,,,,,,,
Cameras,Cameras,,,,,,,,,,,,,,,,,,,,,,,,,,,* myContacts,Mobile,99209-3425,,,,,,,,
Camila F,Camila,,F,,,,,,,,,,,,,,,,,,,,,,,,,* myContacts,Mobile,091 98439-5847,,,,,,,,
Cantor Honorato,Cantor,,Honorato,,,,,,,,,,,,,,,,,,,,,,,,,* myContacts,Mobile,99633-2719,,,,,,,,
Careca,Careca,,,,,,,,,,,,,,,,,,,,,,,,,,,* myContacts,Mobile,984413648,,,,,,,,
Carla Sampaio,Carla,,Sampaio,,,,,,,,,,,,,,,,,,,,,,,,,* myContacts,Mobile,+55 91 99183-9801,,,,,,,,
Ciney Haynan,Ciney,,Haynan,,,,,,,,,,,,,,,,,,,,,,,,,* myContacts,Mobile,988475224,,,,,,,,
Claudiane Gomes,Claudiane,,Gomes,,,,,,,,,,,,,,,,,,,,,,,,,* myContacts,Mobile,+55 44 9940-7314,,,,,,,,
Claudiane Sac,Claudiane,,Sac,,,,,,,,,,,,,,,,,,,,,,,,,* myContacts,Mobile,+55 91 9177-5396,unknown,Claudiane Gomes,,,,,,
Cláudio Miranda,Cláudio,,Miranda,,,,,,,,,,,,,,,,,,,,,,,,,* myContacts,Mobile,+55 91 9155-7193,,,,,,,,
Cláudio Sea,Cláudio,,Sea,,,,,,,,,,,,,,,,,,,,,,,,,* myContacts,Mobile,+55 91 9306-5523,unknown,Claudionor Sea,,,,,,
Claudionor Sea,Claudionor,,Sea,,,,,,,,,,,,,,,,,,,,,,,,,* myContacts,Mobile,982167768,,,,,,,,
consultor Ruan Mendes,consultor,Ruan,Mendes,,,,,,,,,,,,,,,,,,,,,,,,,* myContacts,Mobile,+55 91 9350-9119,unknown,consultor Ruan Mendes,,,,,,
Dallas Hotel,Dallas,,Hotel,,,,,,,,,,,,,,,,,,,,,,,,,* myContacts,Mobile,01593992365253,,,,,,,,
Damiana Rita Cliente Capitão Poço,Damiana Rita Cliente,Capitão,Poço,,,,,,,,,,,,,,,,,,,,,,,,,* myContacts,Mobile,99327-2857,,,,,,,,
Dandara,Dandara,,,,,,,,,,,,,,,,,,,,,,,,,,,* myContacts,Mobile,98707-6990,,,,,,,,
Dani Segurança No Trabalho,Dani Segurança,No,Trabalho,,,,,,,,,,,,,,,,,,,,,,,,,* myContacts,Mobile,+55 91 9178-5058,unknown,SESMT,,,,,,
Daniel Cliente Capitão Porço,Daniel Cliente,Capitão,Porço,,,,,,,,,,,,,,,,,,,,,,,,,* myContacts,Mobile,98446-6869,,,,,,,,
Daniel Junior,Daniel,,Junior,,,,,,,,,,,,,,,,,,,,,,,,,* myContacts,Mobile,+55 91 99198-7782,unknown,Sea Telecom,,Consultor de Vendas,,,,
Davi Sob. Ana,Davi,Sob.,Ana,,,,,,,,,,,,,,,,,,,,,,,,,* myContacts,Celular,+55 11 97216-6626,,,,,,,,
DAYWISON GUIMARÃES,DAYWISON,,GUIMARÃES,,,,,,,,,,,,,,,,,,,,,,,,,* myContacts,Mobile,98217-1221,,,,,,,,
Débora Lider,Débora,,Lider,,,,,,,,,,,,,,,,,,,,,,,,,* myContacts,Mobile,+55 91 9299-5912,unknown,Debora Leal,,,,,,
Debora  Pessoal,Debora,,Pessoal,,,,,,,,,,,,,,,,,,,,,,,,,* myContacts,Mobile,+55 91 8712-7920,,,,,,,,
Deigo Vendedor,Deigo,,Vendedor,,,,,,,,,,,,,,,,,,,,,,,,,* myContacts,Mobile,+55 91 9179-4672,unknown,consultor Diego Machado,,,,,,
Deivison Oliveira,Deivison,,Oliveira,,,,,,,,,,,,,,,,,,,,,,,,,* myContacts,Mobile,992211607,,,,,,,,
Delio Rocha,Delio,,Rocha,,,,,,,,,,,,,,,,,,,,,,,,,* myContacts,Mobile,99206-4394,,,,,,,,
Dely Falvez,Dely,,Falvez,,,,,,,,,,,,,,,,,,,,,,,,,* myContacts,Mobile,98056-3762,,,,,,,,
Denis Metalúrgica,Denis,,Metalúrgica,,,,,,,,,,,,,,,,,,,,,,,,,* myContacts,Mobile,01538998839641,,,,,,,,
Denise Clientess,Denise,,Clientess,,,,,,,,,,,,,,,,,,,,,,,,,* myContacts,Mobile,(91) 99965-2915,,,,,,,,
Denise Xluente,Denise,,Xluente,,,,,,,,,,,,,,,,,,,,,,,,,* myContacts,Mobile,(91) 99965-2915,,,,,,,,
Denize Sea,Denize,,Sea,,,,,,,,,,,,,,,,,,,,,,,,,* myContacts,Mobile,992572727,,,,,,,,
Departamento Pessoal Sea,Departamento,Pessoal,Sea,,,,,,,,,,,,,,,,,,,,,,,,,* myContacts,Mobile,99218-4429,,,,,,,,
Departamento Rh,Departamento Rh,,,,,,,,,,,,,,,,,,,,,,,,,,,* myContacts,Mobile,99218-4429,,,,,,,,
Diego Agente Comercial,Diego,Agente,Comercial,,,,,,,,,,,,,,,,,,,,,,,,,* myContacts,Mobile,+55 91 9229-5303,unknown,Diego Sea Telecom,,,,,,
Diego Brito🧐,Diego,,Brito🧐,,,,,,,,,,,,,,,,,,,,,,,,,* myContacts,Mobile,98106-2515,,,,,,,,
Diego CP Poço,Diego,CP,Poço,,,,,,,,,,,,,,,,,,,,,,,,,* myContacts,Mobile,98456-7656,,,,,,,,
Diego Helber Agente Comercial,Diego Helber,Agente,Comercial,,,,,,,,,,,,,,,,,,,,,,,,,* myContacts,Mobile,+55 91 9218-3078,unknown,Diego Helmer Agente Comercial,,,,,,
Diego Negão,Diego,,Negão,,,,,,,,,,,,,,,,,,,,,,,,,* myContacts,Mobile,91 99300-8110,,,,,,,,
Diego Sea,Diego,,Sea,,,,,,,,,,,,,,,,,,,,,,,,,* myContacts,Mobile,991731-592,unknown,Diego Sea,,,,,,
Dierlles,Dierlles,,,,,,,,,,,,,,,,,,,,,,,,,,,* myContacts,Mobile,093999014798,,,,,,,,
Dilciane Sousa,Dilciane,,Sousa,,,,,,,,,,,,,,,,,,,,,,,,,* myContacts,Mobile,91 98125-8033,,,,,,,,
Diogo Cliente,Diogo Cliente ,,,,,,,,,,,,,,,,,,,,,,,,,,,* myContacts,Mobile,+55 91 8286-8911,,,,,,,,
Diogo Novo, Diogo Novo ,,,,,,,,,,,,,,,,,,,,,,,,,,,* myContacts,Mobile,091 98399-2155,,,,,,,,
Dionato Cruz,Dionato Cruz,,,,,,,,,,,,,,,,,,,,,,,,,,,* myContacts,Mobile,98562-6854,unknown,Dionato Cruz,,,,,,
Diones,Diones,,,,,,,,,,,,,,,,,,,,,,,,,,,* myContacts,Mobile,99382-2773,,,,,,,,
Eder Rufeil,Eder,,Rufeil,,,,,,,,,,,,,,,,,,,,,,,,,* myContacts,Mobile,991853-475,unknown,Éder Cristino - SEA,,,,,,
Edinilson -edivaldo,Edinilson,, -edivaldo,,,,,,,,,,,,,,,,,,,,,,,,,* myContacts,Mobile,98220-7944,,,,,,,,
Emerson Sea,Emerson,,Sea,,,,,,,,,,,,,,,,,,,,,,,,,* myContacts,Mobile,+55 91 9292-2175,unknown,Colaborador Emerson costa (Sea Engenharia),,,,,,
Fabiano Sea,Fabiano,,Sea,,,,,,,,,,,,,,,,,,,,,,,,,* myContacts,Mobile,+55 91 8589-7576,,,,,,,,
Fablena km 7,Fablena,km,7,,,,,,,,,,,,,,,,,,,,,,,,,* myContacts,Mobile,99222-1738,,,,,,,,
Felipe Matheus Sea Telecom,Felipe Matheus Sea Telecom,,,,,,,,,,,,,,,,,,,,,,,,,,,* myContacts,Mobile,+55 91 9282-8199,unknown,Felipe Matheus Sea Telecom,,,,,,
Fernando,Fernando,,,,,,,,,,,,,,,,,,,,,,,,,,,* myContacts,Mobile,99278-3453,,,,,,,,
Fernando Apeu,Fernando,,Apeu,,,,,,,,,,,,,,,,,,,,,,,,,* myContacts,Mobile,99278-3453,,,,,,,,
Fernando Apeu Zap,Fernando,Apeu,Zap,,,,,,,,,,,,,,,,,,,,,,,,,* myContacts,Mobile,19 98738-9172,,,,,,,,
Francimar CLIENTE,Francimar,,CLIENTE,,,,,,,,,,,,,,,,,,,,,,,,,* myContacts,Mobile,992607068,,,,,,,,
Francisco De Assis,Francisco,De,Assis,,,,,,,,,,,,,,,,,,,,,,,,,* myContacts,Mobile,+55 91 8709-1196,,,,,,,,
Francisco Sales,Francisco Sales,,,,,,,,,,,,,,,,,,,,,,,,,,,* myContacts,Mobile,+55 91 9164-8754,unknown,Francisco Sales,,,,,,
Francisco Sea,Francisco,,Sea,,,,,,,,,,,,,,,,,,,,,,,,,* myContacts,Mobile,+55 91 9141-5723,unknown,Francisco Erivaldo,,,,,,
Geovane,Geovane,,,,,,,,,,,,,,,,,,,,,,,,,,,* myContacts,Mobile,98533-4151,,,,,,,,
Gilberto Corporativo,Gilberto,,Corporativo,,,,,,,,,,,,,,,,,,,,,,,,,* myContacts,Mobile,+55 91 99278-9791,unknown,Gilberto,,,,,,
,,,,,,,,,,,,,,,,,,,,,,,,,,,,* myContacts,Mobile,+55 91 99182-1479,unknown,Gleyson Fernandes,,,,,,
Hotel Didi Capanema,Hotel Didi Capanema ,,,,,,,,,,,,,,,,,,,,,,,,,,,* myContacts,Mobile,983455848,,,,,,,,
Hotel Rio Guamá,Hotel Rio Guamá,,,,,,,,,,,,,,,,,,,,,,,,,,,* myContacts,Mobile,+55 91 8838-6645,unknown,Hotel Rio Guamá,,,,,,
Ian Corp,Ian,,Corp,,,,,,,,,,,,,,,,,,,,,,,,,* myContacts,Mobile,+55 91 9161-5747,,,,,,,,
Iasmin,Iasmin,,,,,,,,,,,,,,,,,,,,,,,,,,,* myContacts,Mobile,99181-8963,unknown,Iasmin Oliveira,,,,,,
Ind Ren Apeu,Ind,Ren,Apeu,,,,,,,,,,,,,,,,,,,,,,,,,* myContacts,Mobile,99273-3746,,,,,,,,
Ismael Vivo Sea,Ismael,Vivo,Sea,,,,,,,,,,,,,,,,,,,,,,,,,* myContacts,Mobile,091991517667,,,,,,,,
Israel - Dedicado,Israel,-,Dedicado,,,,,,,,,,,,,,,,,,,,,,,,,* myContacts,Mobile,+55 91 9315-2758,unknown,ISRAEL EXECUTIVO DE VENDAS - SEA TELECOM,,,,,,
Israel Projeto,Israel,,Projeto,,,,,,,,,,,,,,,,,,,,,,,,,* myContacts,Mobile,992732243,,,,,,,,
Ivam J Das Acacias,Ivam J,Das,Acacias,,,,,,,,,,,,,,,,,,,,,,,,,* myContacts,Mobile,98813-1875,,,,,,,,
Jaciara Pontes,Jaciara,,Pontes,,,,,,,,,,,,,,,,,,,,,,,,,* myContacts,Mobile,+55 91 8508-1357,,,,,,,,
Janilson,Janilson,,,,,,,,,,,,,,,,,,,,,,,,,,,* myContacts,Celular,98443-4967,,,,,,,,
João Shimoneck,João,,Shimoneck,,,,,,,,,,,,,,,,,,,,,,,,,* myContacts,Mobile,+55 91 9196-5137,unknown,Atendimento Agência,,,,,,
Joelson,Joelson ,,,,,,,,,,,,,,,,,,,,,,,,,,,* myContacts,Mobile,98094-6116,,,,,,,,
Joelson,Joelson,,,,,,,,,,,,,,,,,,,,,,,,,,,* myContacts,Mobile,99943-2729,,,,,,,,
Johnny Corporativo,Johnny,,Corporativo,,,,,,,,,,,,,,,,,,,,,,,,,* myContacts,Mobile,+55 91 99230-7432,,,,,,,,
Jorge Pena,Jorge Pena,,,,,,,,,,,,,,,,,,,,,,,,,,,* myContacts,Mobile,+55 21 97127-5360,unknown,Jorge Pena,,,,,,
Jorran Benevides,Jorran,,Benevides,,,,,,,,,,,,,,,,,,,,,,,,,* myContacts,Mobile,991618-773,unknown,Jorran Benevides,,,,,,
JOSE VINICIUS SILVA SOUZA,JOSE VINICIUS,SILVA,SOUZA,,,,,,,,,,,,,,,,,,,,,,,,,* myContacts,Mobile,98807-1827,,,,,,,,
Jp estoque,Jp,,estoque,,,,,,,,,,,,,,,,,,,,,,,,,* myContacts,Mobile,98192-0383,,,,,,,,
Karlan Caldeira,Karlan Caldeira,,,,,,,,,,,,,,,,,,,,,,,,,,,* myContacts,Mobile,+55 91 9157-4544,unknown,Karlan Caldeira,,,,,,
Karolayne Farias,Karolayne,,Farias,,,,,,,,,,,,,,,,,,,,,,,,,* myContacts,Redes móveis,+55 91 9364-1008,,,,,,,,
Kevin Mesquita,Kevin Mesquita,,,,,,,,,,,,,,,,,,,,,,,,,,,* myContacts,Mobile,+55 91 9276-6696,unknown,Kevin Mesquita,,,,,,
Lana Fernandes,Lana,,Fernandes,,,,,,,,,,,,,,,,,,,,,,,,,* myContacts,Mobile,+55 91 8107-1072,,,,,,,,
Laysa Sea,Laysa,,Sea,,,,,,,,,,,,,,,,,,,,,,,,,* myContacts,Mobile,+55 91 91658-765,unknown,Laysa Gonçalves,,,,,,
Leon Corporativo,Leon,,Corporativo,,,,,,,,,,,,,,,,,,,,,,,,,* myContacts,Mobile,+55 91 99270-9117,unknown,Leon,,,,,,
Leon Fernandes,Leon,,Fernandes,,,,,,,,,,,,,,,,,,,,,,,,,* myContacts,Mobile,+55 91 9217-4177,,,,,,,,
Leonardo Costa 😎,Leonardo,Costa,😎,,,,,,,,,,,,,,,,,,,,,,,,,* myContacts,Mobile,+55 91 8940-9040,,,,,,,,
Leonis,Leonis,,,,,,,,,,,,,,,,,,,,,,,,,,,* myContacts,Mobile,985313084,,,,,,,,
Ligiane Assunção,Ligiane,,Assunção,,,,,,,,,,,,,,,,,,,,,,,,,* myContacts,Mobile,+55 91 93863-857,,,,,,,,
Luciano Santiago,Luciano Santiago,,,,,,,,,,,,,,,,,,,,,,,,,,,* myContacts,Mobile,+55 91 9310-3130,unknown,Luciano Santiago,,,,,,
Lucio Sea,Lucio,,Sea,,,,,,,,,,,,,,,,,,,,,,,,,* myContacts,Mobile,+55 91 9371-8579,,,,,,,,
Mamãe,Mamãe,,,,,,,,,,,,,,,,,,,,,,,,,,,* myContacts,Celular,9 8590-3217,,,,,,,,
"MARA DA SILVA LIMA

Telefone: (91) 99852-0181","MARA DA SILVA LIMA

Telefone:",(91),"99852-0181

",,,,,,,,,,,,,,,,,,,,,,,,,* myContacts,Mobile, 99852-0181,,,,,,,,
Maraysa Qualidade SEA,Maraysa Qualidade SEA,,,,,,,,,,,,,,,,,,,,,,,,,,,* myContacts,Mobile,+55 91 9163-7276,unknown,Maraysa Qualidade SEA,,,,,,
Maria,Maria,,,,,,,,,,,,,,,,,,,,,,,,,,,* myContacts,Mobile,+55 91 9135-6852,unknown,Cobrança Sea,,,,,,
Maria Euarda,Maria,,Euarda,,,,,,,,,,,,,,,,,,,,,,,,,* myContacts,Mobile,99255-8452,,,,,,,,
Miguel,Miguel,,,,,,,,,,,,,,,,,,,,,,,,,,,* myContacts,Mobile,+55 91 9299-0959,unknown,Miguel Neto,,,,,,
Naum Bassan,Naum Bassan,,,,,,,,,,,,,,,,,,,,,,,,,,,* myContacts,Mobile,+55 91 9316-9899,unknown,Naum Bassan,,,,,,
Nicolas Melo,Nicolas,,Melo,,,,,,,,,,,,,,,,,,,,,,,,,* myContacts,Mobile,+55 91 9969-5730,,,,,,,,
Noc,Noc,,,,,,,,,,,,,,,,,,,,,,,,,,,* myContacts,Mobile, 99219-7113,unknown,NOC 24h - Sea Telecom,,,,,,
Noc | SEA Telecom 2,Noc | SEA,Telecom,2,,,,,,,,,,,,,,,,,,,,,,,,,* myContacts,Celular, 99271-2528,,,,,,,,
NOC 02,NOC,,02,,,,,,,,,,,,,,,,,,,,,,,,,* myContacts,Celular,99271-2528,,,,,,,,
Noc 2,Noc,,2,,,,,,,,,,,,,,,,,,,,,,,,,* myContacts,Mobile,+55 91 99271-2528,unknown,NOC 02 Sea Telecom,,,,,,
Noc Sea,Noc,,Sea,,,,,,,,,,,,,,,,,,,,,,,,,* myContacts,Mobile,992197113,,,,,,,,
Padoca,Padoca,,,,,,,,,,,,,,,,,,,,,,,,,,,* myContacts,Mobile,(91) 98025-0067,,,,,,,,
Paulo Cesar - Mecalux,Paulo Cesar,-,Mecalux,,,,,,,,,,,,,,,,,,,,,,,,,* myContacts,Mobile,+55 85 9201-9474,,,,,,,,
Paulo Moises Cliente,Paulo,Moises,Cliente,,,,,,,,,,,,,,,,,,,,,,,,,* myContacts,Mobile,991984003,,,,,,,,
Paulo Nazareno,Paulo Nazareno,,,,,,,,,,,,,,,,,,,,,,,,,,,* myContacts,Mobile,98065-4028,,,,,,,,
Paulo Protege,Paulo,,Protege,,,,,,,,,,,,,,,,,,,,,,,,,* myContacts,Mobile,984560610,,,,,,,,
Paulo Ricardo,Paulo,,Ricardo,,,,,,,,,,,,,,,,,,,,,,,,,* myContacts,Celular,+55 91 8470-1388,,,,,,,,
Paulo Soares,Paulo Soares ,,,,,,,,,,,,,,,,,,,,,,,,,,,* myContacts,Mobile,91 9378-6364,,,,,,,,
Paulo Wdc,Paulo,,Wdc,,,,,,,,,,,,,,,,,,,,,,,,,* myContacts,Mobile,011975441974,,,,,,,,
Pedro Cliente,Pedro Cliente ,,,,,,,,,,,,,,,,,,,,,,,,,,,* myContacts,Mobile,99615-9422,,,,,,,,
Pedro Cliente,Pedro Cliente ,,,,,,,,,,,,,,,,,,,,,,,,,,,* myContacts,Mobile,9324-5425,,,,,,,,
Pedro Dvila,Pedro Dvila ,,,,,,,,,,,,,,,,,,,,,,,,,,,* myContacts,Mobile,98762-3127,,,,,,,,
Pedro Henrique,Pedro Henrique ,,,,,,,,,,,,,,,,,,,,,,,,,,,* myContacts,Mobile,99107-9474,,,,,,,,
Pedro Silva Cap Panificadora,Pedro Silva,Cap,Panificadora,,,,,,,,,,,,,,,,,,,,,,,,,* myContacts,Mobile,+55 91 8514-0810,,,,,,,,
Penison Cliente,Penison Cliente ,,,,,,,,,,,,,,,,,,,,,,,,,,,* myContacts,Mobile,98071-0330,,,,,,,,
Perez,Perez,,,,,,,,,,,,,,,,,,,,,,,,,,,* myContacts,Mobile,+55 91 9354-3048,unknown,Anderson Pirez Menezes,,,,,,
Perna Curta,Perna,,Curta,,,,,,,,,,,,,,,,,,,,,,,,,* myContacts,Mobile, 99348-6599,unknown,Antonio Marcos,,,,,,
Piçarreira,Piçarreira,,,,,,,,,,,,,,,,,,,,,,,,,,,* myContacts,Mobile,091 98766-6861,,,,,,,,
Pintor Felipe,Pintor,,Felipe,,,,,,,,,,,,,,,,,,,,,,,,,* myContacts,Mobile,(91) 98123-7327,,,,,,,,
Placa,Placa,,,,,,,,,,,,,,,,,,,,,,,,,,,* myContacts,Mobile,99614-7998,,,,,,,,
Plano Cell,Plano,,Cell,,,,,,,,,,,,,,,,,,,,,,,,,* myContacts,Mobile,99188-7710,,,,,,,,
Point,Point,,,,,,,,,,,,,,,,,,,,,,,,,,,* myContacts,Mobile,98030-1908,,,,,,,,
Pretinho Antinio Jose,Pretinho,Antinio,Jose,,,,,,,,,,,,,,,,,,,,,,,,,* myContacts,Mobile,99122-9428,,,,,,,,
Prf Gisele,Prf,,Gisele,,,,,,,,,,,,,,,,,,,,,,,,,* myContacts,Mobile,98447-5338,,,,,,,,
Prof. Vivian,Prof,,Vivian,,,,,,,,,,,,,,,,,,,,,,,,,* myContacts,Mobile,98473-9396,,,,,,,,
Projeto,Projeto,,,,,,,,,,,,,,,,,,,,,,,,,,,* myContacts,Mobile,99198-7418,unknown,Sea Engenharia,,,,,,
Pulsus Suporte  Whats,Pulsus,Suporte,Whats,,,,,,,,,,,,,,,,,,,,,,,,,* myContacts,Mobile, 11 91460-0318,unknown,Pulsus,,,,,,
Quem 4,Quem 4,,,,,,,,,,,,,,,,,,,,,,,,,,,* myContacts,Mobile,091 98480-4329,,,,,,,,
Quem E,Quem E ,,,,,,,,,,,,,,,,,,,,,,,,,,,* myContacts,Mobile,091 99236-8489,,,,,,,,
Quem E,Quem E ,,,,,,,,,,,,,,,,,,,,,,,,,,,* myContacts,Mobile,091 99188-4833,,,,,,,,
Quem E 3,Quem E 3,,,,,,,,,,,,,,,,,,,,,,,,,,,* myContacts,Mobile,091 98434-8758,,,,,,,,
Quevin Vitor,Quevin,,Vitor,,,,,,,,,,,,,,,,,,,,,,,,,* myContacts,Mobile,01521997831675,unknown,Sinapse,,,,,,
Raely,Raely,,,,,,,,,,,,,,,,,,,,,,,,,,,* myContacts,Mobile,98261-4031,,,,,,,,
Rafael Nascimento,Rafael,,Nascimento,,,,,,,,,,,,,,,,,,,,,,,,,* myContacts,Mobile,+55 91 8025-8485,,,,,,,,
Rafael Nascimento,Rafael Nascimento,,,,,,,,,,,,,,,,,,,,,,,,,,,* myContacts,Mobile,+55 91 9263-3720,unknown,Rafael Nascimento,,,,,,
Raimunda J Das Acacias,Raimunda J,Das,Acacias,,,,,,,,,,,,,,,,,,,,,,,,,* myContacts,Mobile, 98879-8687,,,,,,,,
Renato Oliveira- Engenheiro Sea,Renato Oliveira-,Engenheiro,Sea,,,,,,,,,,,,,,,,,,,,,,,,,* myContacts,Mobile,992657171,,,,,,,,
Renato Pantoja,Renato,,Pantoja,,,,,,,,,,,,,,,,,,,,,,,,,* myContacts,Mobile,+55 91 99352-5332,unknown,Renato Supervisor Comercial,,,,,,
Roberto Macapazinho,Roberto,,Macapazinho,,,,,,,,,,,,,,,,,,,,,,,,,* myContacts,Mobile,99321-8456,,,,,,,,
Roberto Rodrigues,Roberto,,Rodrigues,,,,,,,,,,,,,,,,,,,,,,,,,* myContacts,Mobile,+55 91 98314-9543,,,,,,,,
Robson,Robson,,,,,,,,,,,,,,,,,,,,,,,,,,,* myContacts,Mobile,91 98017-5660,,,,,,,,
Rodrigo Canelada,Rodrigo,,Canelada,,,,,,,,,,,,,,,,,,,,,,,,,* myContacts,Mobile,99289-7403,unknown,Rodrigo,,,,,,
SAC,SAC,,,,,,,,,,,,,,,,,,,,,,,,,,,* myContacts,Mobile,2992-0230,,,,,,,,
Saiber,Saiber,,,,,,,,,,,,,,,,,,,,,,,,,,,* myContacts,Mobile,98560-5304,,,,,,,,
Sales Pessoal,Sales,,Pessoal,,,,,,,,,,,,,,,,,,,,,,,,,* myContacts,Mobile,+55 91 88068-224,,,,,,,,
Salone,Salone,,,,,,,,,,,,,,,,,,,,,,,,,,,* myContacts,Mobile,99286-5653,unknown,sallone santttttos,,,,,,
Samara,Samara,,,,,,,,,,,,,,,,,,,,,,,,,,,* myContacts,Mobile,98252-7207,,,,,,,,
Samara Cliente,Samara Cliente,,,,,,,,,,,,,,,,,,,,,,,,,,,* myContacts,Mobile,99616-2282,,,,,,,,
Samara Cliente,Samara Cliente ,,,,,,,,,,,,,,,,,,,,,,,,,,,* myContacts,Mobile,98859-4470,,,,,,,,
Samara Cliente Capitão Porço,Samara Cliente,Capitão,Porço,,,,,,,,,,,,,,,,,,,,,,,,,* myContacts,Mobile,98510-6227,,,,,,,,
Samara Cliente    Casa 915,Samara Cliente,Casa,915,,,,,,,,,,,,,,,,,,,,,,,,,* myContacts,Mobile,+55 91 8945-9834,,,,,,,,
Sâmea Cliente 2 Pa Maranhao,Sâmea Cliente 2,Pa,Maranhao,,,,,,,,,,,,,,,,,,,,,,,,,* myContacts,Mobile,+55 91 99623-2073,,,,,,,,
Samira,Samira,,,,,,,,,,,,,,,,,,,,,,,,,,,* myContacts,Mobile,98 9908-4292,,,,,,,,
SAMUEL LIMA ELIAS,SAMUEL,LIMA,ELIAS,,,,,,,,,,,,,,,,,,,,,,,,,* myContacts,Mobile,(94) 99197-1646,,,,,,,,
Samyr Eletricista,Samyr,,Eletricista,,,,,,,,,,,,,,,,,,,,,,,,,* myContacts,Mobile,98015-5460,,,,,,,,
Sandro,Sandro,,,,,,,,,,,,,,,,,,,,,,,,,,,* myContacts,Mobile,+55 91 8405-0733,,,,,,,,
Sandro Agente Sea,Sandro,Agente,Sea,,,,,,,,,,,,,,,,,,,,,,,,,* myContacts,Mobile,+55 91 9223-9919,unknown,Sea Telecom,,,,,,
Sandro Pessoal,Sandro,,Pessoal,,,,,,,,,,,,,,,,,,,,,,,,,* myContacts,Mobile,986264492,,,,,,,,
Sandro Técnico,Sandro,,Técnico,,,,,,,,,,,,,,,,,,,,,,,,,* myContacts,Mobile,992715005,,,,,,,,
Santa Izabel Cliente,Santa Izabel Cliente ,,,,,,,,,,,,,,,,,,,,,,,,,,,* myContacts,Mobile,98060-8384,,,,,,,,
Sara Letícia,Sara,,Letícia,,,,,,,,,,,,,,,,,,,,,,,,,* myContacts,Mobile,98084-1640,,,,,,,,
Sarah,Sarah,,,,,,,,,,,,,,,,,,,,,,,,,,,* myContacts,Mobile,+55 91 8117-9812,,,,,,,,
Sea Abas,Sea,,Abas,,,,,,,,,,,,,,,,,,,,,,,,,* myContacts,Mobile,433790,,,,,,,,
SEA Augusto Corrêa,SEA Augusto Corrêa,,,,,,,,,,,,,,,,,,,,,,,,,,,* myContacts,Mobile,+55 91 9302-7892,unknown,SEA Augusto Corrêa,,,,,,
Sergio,Sergio,,,,,,,,,,,,,,,,,,,,,,,,,,,* myContacts,Mobile,+55 91 98363-0118,,,,,,,,
Sergio Frota,Sergio,,Frota,,,,,,,,,,,,,,,,,,,,,,,,,* myContacts,Mobile,99230-8602,,,,,,,,
Sergio Silva / Frota Sea Telecom,Sergio Silva / Frota Sea Telecom,,,,,,,,,,,,,,,,,,,,,,,,,,,* myContacts,Mobile,0159199370-9580,unknown,Sergio Silva / Frota Sea Telecom,,,,,,
Sidney SEA,Sidney,,SEA,,,,,,,,,,,,,,,,,,,,,,,,,* myContacts,Celular,+55 91 99334-7929,,,,,,,,
Siney,Siney,,,,,,,,,,,,,,,,,,,,,,,,,,,* myContacts,Mobile,+55 91 9191-6374,unknown,Ciney Coorporativo Sea,,,,,,
SST ENGENHARIA,SST,,ENGENHARIA,,,,,,,,,,,,,,,,,,,,,,,,,* myContacts,Mobile,+55 91 8032-9756,,,,,,,,
Suzana Comercial,Suzana,,Comercial,,,,,,,,,,,,,,,,,,,,,,,,,* myContacts,Mobile,+55 91 9181-0145,unknown,Suzanna Cunha,,,,,,
Tamara,Tamara,,,,,,,,,,,,,,,,,,,,,,,,,,,* myContacts,Mobile,091985285979,,,,,,,,
Tayana Araújo,Tayana Araújo,,,,,,,,,,,,,,,,,,,,,,,,,,,* myContacts,Mobile,+55 91 9166-7923,unknown,Tayana Araújo,,,,,,
Thiago Corporativo Vivo,Thiago,Corporativo,Vivo,,,,,,,,,,,,,,,,,,,,,,,,,* myContacts,Mobile,+55 91 9198-1374,unknown,Thiago Rodrigues,,,,,,
Tiago Amarantes,Tiago,,Amarantes,,,,,,,,,,,,,,,,,,,,,,,,,* myContacts,Mobile,+55 91 9623-2563,,,,,,,,
Tiago Estoque,Tiago,,Estoque,,,,,,,,,,,,,,,,,,,,,,,,,* myContacts,Mobile,+55 91 991985-139,,,,,,,,
Valter Braz,Valter Braz,,,,,,,,,,,,,,,,,,,,,,,,,,,* myContacts,Mobile,+55 91 9183-1159,unknown,Valter Braz,,,,,,
Vizinha Do Fran,Vizinha Do Fran,,,,,,,,,,,,,,,,,,,,,,,,,,,* myContacts,Mobile,98487-6968,,,,,,,,
VoiceCon - Atendimento Expresso,VoiceCon -,Atendimento,Expresso,,,,,,,,,,,,,,,,,,,,,,,,,* myContacts,Mobile,091991633596,,,,,,,,
W,W,,,,,,,,,,,,,,,,,,,,,,,,,,,* myContacts,Mobile,99329-8994,,,,,,,,
Wagner Sea,Wagner,,Sea,,,,,,,,,,,,,,,,,,,,,,,,,* myContacts,Mobile,99221-6333,unknown,Wagner Corrêa,,,,,,
Wanderson Sea,Wanderson,,Sea,,,,,,,,,,,,,,,,,,,,,,,,,* myContacts,Mobile,98426-7497,,,,,,,,
Wanderson Sea,Wanderson,,Sea,,,,,,,,,,,,,,,,,,,,,,,,,* myContacts,Mobile,98486-9183,,,,,,,,
WESDER,WESDER,,,,,,,,,,,,,,,,,,,,,,,,,,,* myContacts,Mobile,+55 91 8874-0032,,,,,,,,
WESDER Pessoal,WESDER,,Pessoal,,,,,,,,,,,,,,,,,,,,,,,,,* myContacts,Mobile,+55 91 8874-0032,,,,,,,,
